testbench.vcd
$date
	Tue Apr 09 21:12:07 2024
$end
$version
	Icarus Verilog
$end
$timescale
	1s
$end
$scope module testbench $end
$var wire 32 ! writedata [31:0] $end
$var wire 1 " memwrite $end
$var wire 32 # dataadr [31:0] $end
$var reg 1 $ clk $end
$var reg 1 % reset $end
$scope module dut $end
$var wire 1 $ clk $end
$var wire 1 % reset $end
$var wire 32 & writedata [31:0] $end
$var wire 32 ' readdata [31:0] $end
$var wire 32 ( pc [31:0] $end
$var wire 1 " memwrite $end
$var wire 32 ) instr [31:0] $end
$var wire 32 * dataadr [31:0] $end
$scope module dmem $end
$var wire 1 $ clk $end
$var wire 32 + rd [31:0] $end
$var wire 1 " we $end
$var wire 32 , wd [31:0] $end
$var wire 32 - a [31:0] $end
$upscope $end
$scope module imem $end
$var wire 6 . a [5:0] $end
$var wire 32 / rd [31:0] $end
$upscope $end
$scope module mips $end
$var wire 1 $ clk $end
$var wire 32 0 instr [31:0] $end
$var wire 32 1 readdata [31:0] $end
$var wire 1 % reset $end
$var wire 1 2 zero $end
$var wire 32 3 writedata [31:0] $end
$var wire 1 4 regwrite $end
$var wire 1 5 regdst $end
$var wire 1 6 pcsrc $end
$var wire 32 7 pc [31:0] $end
$var wire 1 " memwrite $end
$var wire 1 8 memtoreg $end
$var wire 1 9 jump $end
$var wire 1 : alusrc $end
$var wire 32 ; aluout [31:0] $end
$var wire 3 < alucontrol [2:0] $end
$scope module c $end
$var wire 1 $ clk $end
$var wire 6 = funct [5:0] $end
$var wire 6 > op [5:0] $end
$var wire 1 2 zero $end
$var wire 1 4 regwrite $end
$var wire 1 5 regdst $end
$var wire 1 " memwrite $end
$var wire 1 8 memtoreg $end
$var wire 1 9 jump $end
$var wire 1 ? branch $end
$var wire 1 : alusrc $end
$var wire 3 @ aluop [2:0] $end
$var wire 3 A alucontrol [2:0] $end
$var reg 1 6 pcsrc $end
$scope module ad $end
$var wire 6 B funct [5:0] $end
$var wire 3 C aluop [2:0] $end
$var reg 3 D alucontrol [2:0] $end
$scope begin aludecblock $end
$upscope $end
$upscope $end
$scope module md $end
$var wire 1 $ clk $end
$var wire 6 E op [5:0] $end
$var wire 1 4 regwrite $end
$var wire 1 5 regdst $end
$var wire 1 " memwrite $end
$var wire 1 8 memtoreg $end
$var wire 1 9 jump $end
$var wire 1 ? branch $end
$var wire 1 : alusrc $end
$var wire 3 F aluop [2:0] $end
$var reg 10 G controls [9:0] $end
$upscope $end
$upscope $end
$scope module dp $end
$var wire 3 H alucontrol [2:0] $end
$var wire 1 : alusrc $end
$var wire 1 $ clk $end
$var wire 32 I instr [31:0] $end
$var wire 1 9 jump $end
$var wire 1 8 memtoreg $end
$var wire 1 6 pcsrc $end
$var wire 32 J readdata [31:0] $end
$var wire 1 5 regdst $end
$var wire 1 4 regwrite $end
$var wire 1 % reset $end
$var wire 1 2 zero $end
$var wire 5 K writereg [4:0] $end
$var wire 32 L writedata [31:0] $end
$var wire 32 M srcb [31:0] $end
$var wire 32 N srca [31:0] $end
$var wire 32 O signimmsh [31:0] $end
$var wire 32 P signimm [31:0] $end
$var wire 32 Q result [31:0] $end
$var wire 32 R pcplus4 [31:0] $end
$var wire 32 S pcnextbr [31:0] $end
$var wire 32 T pcnext [31:0] $end
$var wire 32 U pcbranch [31:0] $end
$var wire 32 V pc [31:0] $end
$var wire 32 W aluout [31:0] $end
$scope module alu $end
$var wire 3 X alucontrol [2:0] $end
$var wire 32 Y srcb [31:0] $end
$var wire 32 Z srca [31:0] $end
$var reg 32 [ aluout [31:0] $end
$var reg 1 2 zero $end
$scope begin alublock $end
$upscope $end
$upscope $end
$scope module immsh $end
$var wire 32 \ y [31:0] $end
$var wire 32 ] a [31:0] $end
$upscope $end
$scope module pcadd1 $end
$var wire 32 ^ b [31:0] $end
$var wire 32 _ y [31:0] $end
$var wire 32 ` a [31:0] $end
$upscope $end
$scope module pcadd2 $end
$var wire 32 a a [31:0] $end
$var wire 32 b b [31:0] $end
$var wire 32 c y [31:0] $end
$upscope $end
$scope module pcbrmux $end
$var wire 32 d d0 [31:0] $end
$var wire 32 e d1 [31:0] $end
$var wire 1 6 s $end
$var wire 32 f y [31:0] $end
$var parameter 32 g WIDTH $end
$upscope $end
$scope module pcmux $end
$var wire 32 h d0 [31:0] $end
$var wire 32 i d1 [31:0] $end
$var wire 1 9 s $end
$var wire 32 j y [31:0] $end
$var parameter 32 k WIDTH $end
$upscope $end
$scope module pcreg $end
$var wire 1 $ clk $end
$var wire 32 l d [31:0] $end
$var wire 1 % reset $end
$var parameter 32 m WIDTH $end
$var reg 32 n q [31:0] $end
$upscope $end
$scope module resmux $end
$var wire 32 o d0 [31:0] $end
$var wire 32 p d1 [31:0] $end
$var wire 1 8 s $end
$var wire 32 q y [31:0] $end
$var parameter 32 r WIDTH $end
$upscope $end
$scope module rf $end
$var wire 1 $ clk $end
$var wire 5 s ra1 [4:0] $end
$var wire 5 t ra2 [4:0] $end
$var wire 32 u wd3 [31:0] $end
$var wire 1 4 we3 $end
$var wire 5 v wa3 [4:0] $end
$var wire 32 w rd2 [31:0] $end
$var wire 32 x rd1 [31:0] $end
$upscope $end
$scope module se $end
$var wire 16 y a [15:0] $end
$var wire 32 z y [31:0] $end
$upscope $end
$scope module srcbmux $end
$var wire 32 { d0 [31:0] $end
$var wire 32 | d1 [31:0] $end
$var wire 1 : s $end
$var wire 32 } y [31:0] $end
$var parameter 32 ~ WIDTH $end
$upscope $end
$scope module wrmux $end
$var wire 5 !" d0 [4:0] $end
$var wire 5 "" d1 [4:0] $end
$var wire 1 5 s $end
$var wire 5 #" y [4:0] $end
$var parameter 32 $" WIDTH $end
$upscope $end
$upscope $end
$upscope $end
$upscope $end
$upscope $end
$enddefinitions $end
$comment Show the parameter values. $end
$dumpall
b101 $"
b100000 ~
b100000 r
b100000 m
b100000 k
b100000 g
$end
#0
$dumpvars
b10 #"
b0 ""
b10 !"
b101 }
b101 |
bx {
b101 z
b101 y
b0 x
bx w
b10 v
b101 u
b10 t
b0 s
b101 q
bx p
b101 o
b0 n
b100 l
b100 j
b10000000000000010100 i
b100 h
b100 f
b11000 e
b100 d
b11000 c
b10100 b
b100 a
b0 `
b100 _
b100 ^
b101 ]
b10100 \
b101 [
b0 Z
b101 Y
b0 X
b101 W
b0 V
b11000 U
b100 T
b100 S
b100 R
b101 Q
b101 P
b10100 O
b0 N
b101 M
bx L
b10 K
bx J
b100000000000100000000000000101 I
b0 H
b1010000000 G
b0 F
b1000 E
b0 D
b0 C
b101 B
b0 A
b0 @
0?
b1000 >
b101 =
b0 <
b101 ;
1:
09
08
b0 7
06
05
14
bx 3
02
bx 1
b100000000000100000000000000101 0
b100000000000100000000000000101 /
b0 .
b101 -
bx ,
bx +
b101 *
b100000000000100000000000000101 )
b0 (
bx '
bx &
1%
0$
b101 #
0"
bx !
$end
#5
b101 !
b101 &
b101 ,
b101 3
b101 L
b101 w
b101 {
1$
#10
0$
#15
1$
#20
0$
#22
0%
#25
b1100 Q
b1100 q
b1100 u
b1100 #
b1100 *
b1100 -
b1100 ;
b1100 W
b1100 [
b1100 o
bx !
bx &
bx ,
bx 3
bx L
bx w
bx {
b11 K
b11 v
b11 #"
b1100 M
b1100 Y
b1100 }
b110000 O
b110000 \
b110000 b
b1000 T
b1000 j
b1000 l
b1100 =
b1100 B
b11000000000000110000 i
b11 t
b11 !"
b1100 P
b1100 ]
b1100 z
b1100 |
b1100 y
b1000 S
b1000 f
b1000 h
b100000000000110000000000001100 )
b100000000000110000000000001100 /
b100000000000110000000000001100 0
b100000000000110000000000001100 I
b1 .
b111000 U
b111000 c
b111000 e
b1000 R
b1000 _
b1000 a
b1000 d
b100 (
b100 7
b100 V
b100 `
b100 n
1$
#30
0$
#35
b11 Q
b11 q
b11 u
b11 #
b11 *
b11 -
b11 ;
b11 W
b11 [
b11 o
b1100 N
b1100 Z
b1100 x
b111 K
b111 v
b111 #"
b11111111111111111111111111110111 M
b11111111111111111111111111110111 Y
b11111111111111111111111111110111 }
b11111111111111111111111111011100 O
b11111111111111111111111111011100 \
b11111111111111111111111111011100 b
b1100 T
b1100 j
b1100 l
b110111 =
b110111 B
b1100111111111111111011100 i
b11 s
b111 t
b111 !"
b11111 ""
b11111111111111111111111111110111 P
b11111111111111111111111111110111 ]
b11111111111111111111111111110111 z
b11111111111111111111111111110111 |
b1111111111110111 y
bx !
bx &
bx ,
bx 3
bx L
bx w
bx {
b1100 S
b1100 f
b1100 h
b100000011001111111111111110111 )
b100000011001111111111111110111 /
b100000011001111111111111110111 0
b100000011001111111111111110111 I
b10 .
b11111111111111111111111111101000 U
b11111111111111111111111111101000 c
b11111111111111111111111111101000 e
b1100 R
b1100 _
b1100 a
b1100 d
b1000 (
b1000 7
b1000 V
b1000 `
b1000 n
1$
#40
0$
#45
b110 <
b110 A
b110 D
b110 H
b110 X
b111 Q
b111 q
b111 u
15
0:
b100 @
b100 C
b100 F
b111 #
b111 *
b111 -
b111 ;
b111 W
b111 [
b111 o
b1100000100 G
b11 N
b11 Z
b11 x
b100 K
b100 v
b100 #"
b101 M
b101 Y
b101 }
b1000000010010100 O
b1000000010010100 \
b1000000010010100 b
b10000 T
b10000 j
b10000 l
b0 >
b0 E
b100101 =
b100101 B
b11100010001000000010010100 i
b111 s
b10 t
b10 !"
b100 ""
b10000000100101 P
b10000000100101 ]
b10000000100101 z
b10000000100101 |
b10000000100101 y
b101 !
b101 &
b101 ,
b101 3
b101 L
b101 w
b101 {
b10000 S
b10000 f
b10000 h
b111000100010000000100101 )
b111000100010000000100101 /
b111000100010000000100101 0
b111000100010000000100101 I
b11 .
b1000000010100100 U
b1000000010100100 c
b1000000010100100 e
b10000 R
b10000 _
b10000 a
b10000 d
b1100 (
b1100 7
b1100 V
b1100 `
b1100 n
1$
#50
0$
#55
b100 Q
b100 q
b100 u
b100 #
b100 *
b100 -
b100 ;
b100 W
b100 [
b100 o
b111 M
b111 Y
b111 }
b10 <
b10 A
b10 D
b10 H
b10 X
b1100 N
b1100 Z
b1100 x
b111 !
b111 &
b111 ,
b111 3
b111 L
b111 w
b111 {
b101 K
b101 v
b101 #"
b1010000010010000 O
b1010000010010000 \
b1010000010010000 b
b10100 T
b10100 j
b10100 l
b100100 =
b100100 B
b1100100001010000010010000 i
b11 s
b100 t
b100 !"
b101 ""
b10100000100100 P
b10100000100100 ]
b10100000100100 z
b10100000100100 |
b10100000100100 y
b10100 S
b10100 f
b10100 h
b11001000010100000100100 )
b11001000010100000100100 /
b11001000010100000100100 0
b11001000010100000100100 I
b100 .
b1010000010100100 U
b1010000010100100 c
b1010000010100100 e
b10100 R
b10100 _
b10100 a
b10100 d
b10000 (
b10000 7
b10000 V
b10000 `
b10000 n
1$
#60
0$
#65
b1011 Q
b1011 q
b1011 u
b1011 #
b1011 *
b1011 -
b1011 ;
b1011 W
b1011 [
b1011 o
b0 <
b0 A
b0 D
b0 H
b0 X
b100 N
b100 Z
b100 x
b1010000010000000 O
b1010000010000000 \
b1010000010000000 b
b11000 T
b11000 j
b11000 l
b100000 =
b100000 B
b10100100001010000010000000 i
b101 s
b10100000100000 P
b10100000100000 ]
b10100000100000 z
b10100000100000 |
b10100000100000 y
b11000 S
b11000 f
b11000 h
b101001000010100000100000 )
b101001000010100000100000 /
b101001000010100000100000 0
b101001000010100000100000 I
b101 .
b1010000010011000 U
b1010000010011000 c
b1010000010011000 e
b11000 R
b11000 _
b11000 a
b11000 d
b10100 (
b10100 7
b10100 V
b10100 `
b10100 n
1$
#70
0$
#75
16
04
05
1?
b1 @
b1 C
b1 F
02
b11 M
b11 Y
b11 }
b1000 Q
b1000 q
b1000 u
b1000001 G
b1 <
b1 A
b1 D
b1 H
b1 X
b11 !
b11 &
b11 ,
b11 3
b11 L
b11 w
b11 {
b111 K
b111 v
b111 #"
b101000 O
b101000 \
b101000 b
b1000 #
b1000 *
b1000 -
b1000 ;
b1000 W
b1000 [
b1000 o
b1000100 T
b1000100 j
b1000100 l
b100 >
b100 E
b1010 =
b1010 B
b10100111000000000000101000 i
b111 t
b111 !"
b0 ""
b1010 P
b1010 ]
b1010 z
b1010 |
b1010 y
b1011 N
b1011 Z
b1011 x
b1000100 S
b1000100 f
b1000100 h
b10000101001110000000000001010 )
b10000101001110000000000001010 /
b10000101001110000000000001010 0
b10000101001110000000000001010 I
b110 .
b1000100 U
b1000100 c
b1000100 e
b11100 R
b11100 _
b11100 a
b11100 d
b11000 (
b11000 7
b11000 V
b11000 `
b11000 n
1$
#80
0$
#85
b0 <
b0 A
b0 D
b0 H
b0 X
b1010100 Q
b1010100 q
b1010100 u
1:
0?
1"
b0 @
b0 C
b0 F
b1010100 #
b1010100 *
b1010100 -
b1010100 ;
b1010100 W
b1010100 [
b1010100 o
b1010100 M
b1010100 Y
b1010100 }
b10100000 G
06
b0 N
b0 Z
b0 x
b101 !
b101 &
b101 ,
b101 3
b101 L
b101 w
b101 {
b10 K
b10 v
b10 #"
b101010000 O
b101010000 \
b101010000 b
b1001000 T
b1001000 j
b1001000 l
b101011 >
b101011 E
b10100 =
b10100 B
b10000000000101010000 i
b0 s
b10 t
b10 !"
b1010100 P
b1010100 ]
b1010100 z
b1010100 |
b1010100 y
b1001000 S
b1001000 f
b1001000 h
b10101100000000100000000001010100 )
b10101100000000100000000001010100 /
b10101100000000100000000001010100 0
b10101100000000100000000001010100 I
b10001 .
b110011000 U
b110011000 c
b110011000 e
b1001000 R
b1001000 _
b1001000 a
b1001000 d
b1000100 (
b1000100 7
b1000100 V
b1000100 `
b1000100 n
1$
